8 Grouped and Bivariate Analysis – Data-210-Book
…
The lag() and the lead() function will allow us to access either the previous value or the future value respectively. The value NA is given if there is no previous or future value available. This process allows us to determine how much an observation changes over time. In the example below we can see how much each chick’s weight changes between readings.

ChickWeight |>
  group_by(Chick) |>
  arrange(Time, .by_group = TRUE) |>
  mutate(lag_weight = lag(weight),
         difference = weight - lag_weight) |>
  slice_head(n = 5) |>
  select(Chick, Time, weight, lag_weight, difference) |>
  ungroup()

# A tibble: 247 × 5
   Chick  Time weight lag_weight difference
   <dbl> <dbl>  <dbl>      <dbl>      <dbl>
 1     1     0     42         NA         NA
 2     1     2     51         42          9
 3     1     4     59         51          8
 4     1     6     64         59          5
 5     1     8     76         64         12
 6     2     0     40         NA         NA
 7     2     2     49         40          9
 8     2     4     58         49          9
 9     2     6     72         58         14
10     2     8     84         72         12
# ℹ 237 more rows
…
