10 Tidy Data Principles – Data-210-Book
…
  City pop_2020 pop_2022 pop_2024 votes_2020 votes_2022 votes_2024
1    A      234      423      742        111        222        444
2    B      358      432      532        222        298        333
3    C      247      285      401        123        103        200
4    D      237      204      243         94         85        100

In order to try to improve the format of this data we can play around with the pivot_longer() and pivot_wider() functions. To start, we can gather up the 6 columns relating to population and voting totals and place them in a single column, with the numeric values assigned to a different column.

election |> 
  pivot_longer(pop_2020:votes_2024, 
               names_to = "Characteristic", values_to = "Count")

# A tibble: 24 × 3
   City  Characteristic Count
   <chr> <chr>          <dbl>
 1 A     pop_2020         234
 2 A     pop_2022         423
 3 A     pop_2024         742
 4 A     votes_2020       111
 5 A     votes_2022       222
 6 A     votes_2024       444
 7 B     pop_2020         358
 8 B     pop_2022         432
 9 B     pop_2024         532
10 B     votes_2020       222
# ℹ 14 more rows

In the output above we have a column relating to the population and voting totals but the year is attached to each of those values. Because of this, we can separate the column so that we have the year in its own column.

election |> 
  pivot_longer(pop_2020:votes_2024, 
               names_to = "Characteristic", values_to = "Count") |>
  separate(Characteristic, into=c("Trait","Year"), sep="_")

# A tibble: 24 × 4
   City  Trait Year  Count
   <chr> <chr> <chr> <dbl>
 1 A     pop   2020    234
 2 A     pop   2022    423
 3 A     pop   2024    742
 4 A     votes 2020    111
 5 A     votes 2022    222
 6 A     votes 2024    444
 7 B     pop   2020    358
 8 B     pop   2022    432
 9 B     pop   2024    532
10 B     votes 2020    222
# ℹ 14 more rows
…
